…
As it stands, these data are not “tidy”: route number should be a
variable, as should route. That is, to obtain a tidy dataset we would
need to convert `route` variables from wide to long format. This will be
useful when focusing on specific routes, but may not be necessary when
considering questions that focus on station-level variables.

The following code chunk selects station name and line, and then uses
`distinct()` to obtain all unique combinations. As a result, the number
of rows in this dataset is the number of unique stations.

``` r
trans_ent %>% 
  select(station_name, line) %>% 
  distinct()
## # A tibble: 465 × 2
##    station_name             line    
##    <chr>                    <chr>   
##  1 25th St                  4 Avenue
##  2 36th St                  4 Avenue
##  3 45th St                  4 Avenue
##  4 53rd St                  4 Avenue
##  5 59th St                  4 Avenue
##  6 77th St                  4 Avenue
##  7 86th St                  4 Avenue
##  8 95th St                  4 Avenue
##  9 9th St                   4 Avenue
## 10 Atlantic Av-Barclays Ctr 4 Avenue
## # … with 455 more rows
## # ℹ Use `print(n = ...)` to see more rows
```

The next code chunk is similar, but filters according to ADA compliance
as an initial step. This produces a dataframe in which the number of
rows is the number of ADA compliant stations.

``` r
trans_ent %>% 
  filter(ada == TRUE) %>% 
  select(station_name, line) %>% 
  distinct
## # A tibble: 84 × 2
##    station_name                   line           
##    <chr>                          <chr>          
##  1 Atlantic Av-Barclays Ctr       4 Avenue       
##  2 DeKalb Av                      4 Avenue       
##  3 Pacific St                     4 Avenue       
##  4 Grand Central                  42nd St Shuttle
##  5 34th St                        6 Avenue       
##  6 47-50th Sts Rockefeller Center 6 Avenue       
##  7 Church Av                      6 Avenue       
##  8 21st St                        63rd Street    
##  9 Lexington Av                   63rd Street    
## 10 Roosevelt Island               63rd Street    
## # … with 74 more rows
## # ℹ Use `print(n = ...)` to see more rows
```
…
``` r
trans_ent %>% 
  pivot_longer(
    route1:route11,
    names_to = "route_num",
    values_to = "route") %>% 
  filter(route == "A") %>% 
  select(station_name, line) %>% 
  distinct
## # A tibble: 60 × 2
##    station_name                  line           
##    <chr>                         <chr>          
##  1 Times Square                  42nd St Shuttle
##  2 125th St                      8 Avenue       
##  3 145th St                      8 Avenue       
##  4 14th St                       8 Avenue       
##  5 168th St - Washington Heights 8 Avenue       
##  6 175th St                      8 Avenue       
##  7 181st St                      8 Avenue       
##  8 190th St                      8 Avenue       
##  9 34th St                       8 Avenue       
## 10 42nd St                       8 Avenue       
## # … with 50 more rows
## # ℹ Use `print(n = ...)` to see more rows
…
``` r
# Load the data file, without the picture in the first row and numerical sums in the last row(that do not include dumpster-specific data)
Mr_Trash_wheel = 
  read_excel("./data/Trash Wheel Collection Data.xlsx",sheet = 1, range = "A2:N549") %>% 
# clean names
  janitor::clean_names() %>% 
# round the number of sports balls to the nearest integer and converts the result to an interger variable; Add a new variable indicate this is from Mr. Trash wheel: Convert year into num variable
  mutate(
      sports_balls_inte = as.integer(sports_balls),
      Trash_wheel = "Mr. Trash wheel",
      year = as.numeric(year)
    )
# Demonstrate the table
  Mr_Trash_wheel 
## # A tibble: 547 × 16
##    dumpster month  year date                weight_tons volume…¹ plast…² polys…³
##       <dbl> <chr> <dbl> <dttm>                    <dbl>    <dbl>   <dbl>   <dbl>
##  1        1 May    2014 2014-05-16 00:00:00        4.31       18    1450    1820
##  2        2 May    2014 2014-05-16 00:00:00        2.74       13    1120    1030
##  3        3 May    2014 2014-05-16 00:00:00        3.45       15    2450    3100
##  4        4 May    2014 2014-05-17 00:00:00        3.1        15    2380    2730
##  5        5 May    2014 2014-05-17 00:00:00        4.06       18     980     870
##  6        6 May    2014 2014-05-20 00:00:00        2.71       13    1430    2140
##  7        7 May    2014 2014-05-21 00:00:00        1.91        8     910    1090
##  8        8 May    2014 2014-05-28 00:00:00        3.7        16    3580    4310
##  9        9 June   2014 2014-06-05 00:00:00        2.52       14    2400    2790
## 10       10 June   2014 2014-06-11 00:00:00        3.76       18    1340    1730
## # … with 537 more rows, 8 more variables: cigarette_butts <dbl>,
## #   glass_bottles <dbl>, grocery_bags <dbl>, chip_bags <dbl>,
## #   sports_balls <dbl>, homes_powered <dbl>, sports_balls_inte <int>,
## #   Trash_wheel <chr>, and abbreviated variable names ¹​volume_cubic_yards,
## #   ²​plastic_bottles, ³​polystyrene
## # ℹ Use `print(n = ...)` to see more rows, and `colnames()` to see all variable names
```
Read and clean the Professor Trash Wheel sheet:

``` r
# Load the data file, without the picture in the first row and numerical sums in the last row(that do not include dumpster-specific data)
Pro_Trash_wheel = 
  read_excel("./data/Trash Wheel Collection Data.xlsx",sheet = 2, range = "A2:M96") %>% 
# clean names
  janitor::clean_names() %>% 
# round the number of sports balls to the nearest integer and converts the result to an interger variable; Add a new variable indicate this is from Mr. Trash wheel
  mutate(
      Trash_wheel = "Professor Trash wheel"
    )
# Demonstrate the table
  Pro_Trash_wheel
## # A tibble: 94 × 14
##    dumpster month     year date                weight_…¹ volum…² plast…³ polys…⁴
##       <dbl> <chr>    <dbl> <dttm>                  <dbl>   <dbl>   <dbl>   <dbl>
##  1        1 January   2017 2017-01-02 00:00:00      1.79      15    1950    6080
##  2        2 January   2017 2017-01-30 00:00:00      1.58      15    9540   11230
##  3        3 February  2017 2017-02-26 00:00:00      2.32      18    8350    9210
##  4        4 February  2017 2017-02-26 00:00:00      3.72      15    8590    1030
##  5        5 February  2017 2017-02-28 00:00:00      1.45      15    7830    9950
##  6        6 March     2017 2017-03-30 00:00:00      1.71      15    8210   10340
##  7        7 April     2017 2017-04-01 00:00:00      1.82      15    9830   11020
##  8        8 April     2017 2017-04-20 00:00:00      2.37      15    9240    8760
##  9        9 May       2017 2017-05-10 00:00:00      2.64      15    9540    8810
## 10       10 May       2017 2017-05-26 00:00:00      2.78      15    8230    7800
## # … with 84 more rows, 6 more variables: cigarette_butts <dbl>,
## #   glass_bottles <dbl>, grocery_bags <dbl>, chip_bags <dbl>,
## #   homes_powered <dbl>, Trash_wheel <chr>, and abbreviated variable names
## #   ¹​weight_tons, ²​volume_cubic_yards, ³​plastic_bottles, ⁴​polystyrene
## # ℹ Use `print(n = ...)` to see more rows, and `colnames()` to see all variable names
```

Combine two trash wheel sheet. Since there is a huge difference between
two dataset, we will choose full join method.

``` r
# Join two dataset use full join
Trash_wheel =
  full_join(Mr_Trash_wheel, Pro_Trash_wheel) %>% 
# Change the order of variables
  select(dumpster, Trash_wheel, everything())
# Demonstrate the table
  Trash_wheel
## # A tibble: 641 × 16
##    dumpster Trash_wheel  month  year date                weigh…¹ volum…² plast…³
##       <dbl> <chr>        <chr> <dbl> <dttm>                <dbl>   <dbl>   <dbl>
##  1        1 Mr. Trash w… May    2014 2014-05-16 00:00:00    4.31      18    1450
##  2        2 Mr. Trash w… May    2014 2014-05-16 00:00:00    2.74      13    1120
##  3        3 Mr. Trash w… May    2014 2014-05-16 00:00:00    3.45      15    2450
##  4        4 Mr. Trash w… May    2014 2014-05-17 00:00:00    3.1       15    2380
##  5        5 Mr. Trash w… May    2014 2014-05-17 00:00:00    4.06      18     980
##  6        6 Mr. Trash w… May    2014 2014-05-20 00:00:00    2.71      13    1430
##  7        7 Mr. Trash w… May    2014 2014-05-21 00:00:00    1.91       8     910
##  8        8 Mr. Trash w… May    2014 2014-05-28 00:00:00    3.7       16    3580
##  9        9 Mr. Trash w… June   2014 2014-06-05 00:00:00    2.52      14    2400
## 10       10 Mr. Trash w… June   2014 2014-06-11 00:00:00    3.76      18    1340
## # … with 631 more rows, 8 more variables: polystyrene <dbl>,
## #   cigarette_butts <dbl>, glass_bottles <dbl>, grocery_bags <dbl>,
## #   chip_bags <dbl>, sports_balls <dbl>, homes_powered <dbl>,
## #   sports_balls_inte <int>, and abbreviated variable names ¹​weight_tons,
## #   ²​volume_cubic_yards, ³​plastic_bottles
## # ℹ Use `print(n = ...)` to see more rows, and `colnames()` to see all variable names
```

Calculate some important data and results:

``` r
# calculate the number of observations in the resulting dataset
Trash_wheel %>% 
  select(dumpster, Trash_wheel) %>% 
  distinct
## # A tibble: 641 × 2
##    dumpster Trash_wheel    
##       <dbl> <chr>          
##  1        1 Mr. Trash wheel
##  2        2 Mr. Trash wheel
##  3        3 Mr. Trash wheel
##  4        4 Mr. Trash wheel
##  5        5 Mr. Trash wheel
##  6        6 Mr. Trash wheel
##  7        7 Mr. Trash wheel
##  8        8 Mr. Trash wheel
##  9        9 Mr. Trash wheel
## 10       10 Mr. Trash wheel
## # … with 631 more rows
## # ℹ Use `print(n = ...)` to see more rows
…
